{
  "name": "gumshoe",
  "title": "GUMSHOE System",
  "description": "Compatible with Trail of Cthulhu and Night's Blacks Agents, and can be customized to work with any other GUMSHOE-based game.",
  "version": "2.6.0",
  "author": "Neil de Carteret",
  "scripts": [],
  "esmodules": ["gumshoe.js"],
  "styles": ["gumshoe.css"],
  "packs": [
    {
      "name": "trailOfCthulhuAbilities",
      "label": "Trail of Cthulhu Abilities",
      "system": "gumshoe",
      "path": "./packs/trailOfCthulhuAbilities.db",
      "entity": "Item"
    },
    {
      "name": "nightsBlackAgentsAbilities",
      "label": "Night's Black Agents Abilities",
      "system": "gumshoe",
      "path": "./packs/nightsBlackAgentsAbilities.db",
      "entity": "Item"
    },
    {
      "name": "fearItselfAbilities",
      "label": "Fear Itself Abilities",
      "system": "gumshoe",
      "path": "./packs/fearItselfAbilities.db",
      "entity": "Item"
    },
    {
      "name": "ashenStarsAbilities",
      "label": "Ashen Stars Abilities",
      "system": "gumshoe",
      "path": "./packs/ashenStarsAbilities.db",
      "entity": "Item"
    }
  ],
  "languages": [],
  "gridDistance": 1,
  "gridUnits": "",
  "minimumCoreVersion": "0.7.9",
  "compatibleCoreVersion": "0.8.8",
  "initiative": "1d6",
  "url": "https://gitlab.com/n3dst4/gumshoe-fvtt",
  "manifest": "https://gitlab.com/n3dst4/gumshoe-fvtt/-/raw/release/src/system.json",
  "download": "https://gitlab.com/n3dst4/gumshoe-fvtt/uploads/49f0932b2c98f68b487c37815f92abca/gumshoe-v2.6.0.zip",
  "license": "MIT",
  "readme": "https://gitlab.com/n3dst4/gumshoe-fvtt/-/blob/release/README.md",
  "bugs": "https://gitlab.com/n3dst4/gumshoe-fvtt/-/issues",
  "changelog": "https://gitlab.com/n3dst4/gumshoe-fvtt/-/blob/release/CHANGELOG.md"
}